{"paging":{"page":1,"total":5927,"page_size":20,"pages":297},"loans":[{"id":3029798,"name":"Francis","description":{"languages":["en"]},"status":"fundraising","funded_amount":0,"basket_amount":0,"image":{"id":6055148,"template_id":1},"activity":"Poultry","sector":"Agriculture","themes":["Rural Exclusion","Crop Insurance"],"use":"to construct a modern building for poultry project and to buy more chicks.","location":{"country_code":"UG","country":"Uganda","town":"Kinoni","geo":{"level":"town","pairs":"-0.352537 31.552699","type":"point"}},"partner_id":685,"posted_date":"2025-08-12T18:20:43Z","planned_expiration_date":"2025-09-16T18:20:43Z","loan_amount":1425,"borrower_count":1,"lender_count":0,"bonus_credit_eligibility":true,"tags":[{"name":"volunteer_pick","id":"1"},{"name":"#Animals","id":"11"},{"name":"#Repeat Borrower","id":"28"}]},{"id":3028200,"name":"Leonor Edith","description":{"languages":["es","en"]},"status":"fundraising","funded_amount":0,"basket_amount":0,"image":{"id":6049171,"template_id":1},"activity":"Retail","sector":"Retail","use":"to buy perfumes, creams, beauty treatments, makeup, pants, T-shirts, blouses, dresses, and other products.","location":{"country_code":"EC","country":"Ecuador","town":"Portoviejo","geo":{"level":"town","pairs":"-1.054723 -80.45249","type":"point"}},"partner_id":137,"posted_date":"2025-08-12T18:10:13Z","planned_expiration_date":"2025-09-16T18:10:12Z","loan_amount":1700,"borrower_count":1,"lender_count":0,"bonus_credit_eligibility":true,"tags":[{"name":"#Woman-Owned Business","id":"6"},{"name":"#Repeat Borrower","id":"28"}]},{"id":3028199,"name":"Delia Mar\u00eda","description":{"languages":["es","en"]},"status":"fundraising","funded_amount":0,"basket_amount":0,"image":{"id":6049170,"template_id":1},"activity":"Retail","sector":"Retail","use":"to buy groceries to prepare food as well as clothing, jewelry, perfumes, small miscellaneous goods, cosmetics, creams, etc.","location":{"country_code":"EC","country":"Ecuador","town":"Portoviejo","geo":{"level":"town","pairs":"-1.054723 -80.45249","type":"point"}},"partner_id":137,"posted_date":"2025-08-12T17:50:17Z","planned_expiration_date":"2025-09-16T17:50:17Z","loan_amount":1500,"borrower_count":1,"lender_count":0,"bonus_credit_eligibility":true,"tags":[{"name":"#Woman-Owned Business","id":"6"},{"name":"#Repeat Borrower","id":"28"}]},{"id":3027066,"name":"Nurullo","description":{"languages":["ru","en"]},"status":"fundraising","funded_amount":0,"basket_amount":0,"image":{"id":6045612,"template_id":1},"activity":"Primary\/secondary school costs","sector":"Education","themes":["Higher Education"],"use":"to buy school uniforms.","location":{"country_code":"TJ","country":"Tajikistan","town":"J.Balkhi","geo":{"level":"country","pairs":"39 71","type":"point"}},"partner_id":63,"posted_date":"2025-08-12T17:50:08Z","planned_expiration_date":"2025-09-16T17:50:08Z","loan_amount":650,"borrower_count":1,"lender_count":0,"bonus_credit_eligibility":false,"tags":[{"name":"#Parent","id":"16"},{"name":"#Schooling","id":"18"}]},{"id":3029427,"name":"Fatoumata's Group","description":{"languages":["fr","en"]},"status":"fundraising","funded_amount":100,"basket_amount":0,"image":{"id":6054029,"template_id":1},"activity":"Farming","sector":"Agriculture","themes":["Underfunded Areas","Rural Exclusion"],"use":"to buy fertilizer and herbicides, while covering the costs of tillage, sowing and weeding for her farming activity.","location":{"country_code":"ML","country":"Mali","town":"KASSARO","geo":{"level":"town","pairs":"12.947945 -8.863846","type":"point"}},"partner_id":438,"posted_date":"2025-08-12T17:20:25Z","planned_expiration_date":"2025-09-16T17:20:25Z","loan_amount":4900,"borrower_count":12,"lender_count":1,"bonus_credit_eligibility":false,"tags":[{"name":"#Woman-Owned Business","id":"6"}]},{"id":3028196,"name":"Agustina","description":{"languages":["es","en"]},"status":"fundraising","funded_amount":50,"basket_amount":25,"image":{"id":6049134,"template_id":1},"activity":"Solar Home Systems","sector":"Clean Energy","themes":["Green","Earth Day Campaign","Solar","Clean Energy","Social Enterprise","Social Enterprise","Social Enterprise"],"use":"to buy a solar lighting system that will improve her quality of life.","location":{"country_code":"HN","country":"Honduras","town":"Yoro","geo":{"level":"town","pairs":"15.136965 -87.127325","type":"point"}},"partner_id":390,"posted_date":"2025-08-12T17:20:23Z","planned_expiration_date":"2025-09-16T17:20:23Z","loan_amount":1150,"borrower_count":1,"lender_count":2,"bonus_credit_eligibility":false,"tags":[{"name":"volunteer_like","id":"2"},{"name":"#Eco-friendly","id":"9"}]},{"id":3029797,"name":"Nazia","description":{"languages":["en"]},"status":"fundraising","funded_amount":0,"basket_amount":0,"image":{"id":6054302,"template_id":1},"activity":"Cloth & Dressmaking Supplies","sector":"Retail","use":"to buy a wide variety of cloth in different colors and designs to attract more customers and expand her business.","location":{"country_code":"PK","country":"Pakistan","town":"Lahore","geo":{"level":"town","pairs":"31.549722 74.343611","type":"point"}},"partner_id":245,"posted_date":"2025-08-12T17:20:22Z","planned_expiration_date":"2025-09-16T17:20:21Z","loan_amount":375,"borrower_count":1,"lender_count":0,"bonus_credit_eligibility":true,"tags":[{"name":"#Woman-Owned Business","id":"6"},{"name":"#Parent","id":"16"},{"name":"#Fabrics","id":"26"}]},{"id":3029423,"name":"Dodzi","description":{"languages":["fr","en"]},"status":"fundraising","funded_amount":0,"basket_amount":0,"image":{"id":6053996,"template_id":1},"activity":"Food","sector":"Food","use":"to buy to 5 gourds of yam, 6 cans of oil, and 3 bags of rice.","location":{"country_code":"TG","country":"Togo","town":"An\u00e9ho","geo":{"level":"town","pairs":"6.227277 1.581424","type":"point"}},"partner_id":296,"posted_date":"2025-08-12T17:00:40Z","planned_expiration_date":"2025-09-16T17:00:40Z","loan_amount":450,"borrower_count":1,"lender_count":0,"bonus_credit_eligibility":true,"tags":[{"name":"#Woman-Owned Business","id":"6"}]},{"id":3029795,"name":"Zainab","description":{"languages":["en"]},"status":"fundraising","funded_amount":0,"basket_amount":0,"image":{"id":6055318,"template_id":1},"activity":"Food Market","sector":"Food","use":"to purchase more cooking items like oil, palm oil, rice, etc. to increase her business.","location":{"country_code":"SL","country":"Sierra Leone","town":"Moriba town Bo","geo":{"level":"town","pairs":"7.955179 -11.740995","type":"point"}},"partner_id":183,"posted_date":"2025-08-12T17:00:38Z","planned_expiration_date":"2025-09-16T17:00:37Z","loan_amount":375,"borrower_count":1,"lender_count":0,"bonus_credit_eligibility":true,"tags":[{"name":"#Woman-Owned Business","id":"6"},{"name":"#Parent","id":"16"}]},{"id":3029415,"name":"Adjovi","description":{"languages":["fr","en"]},"status":"fundraising","funded_amount":0,"basket_amount":0,"image":{"id":6053976,"template_id":1},"activity":"Food","sector":"Food","use":"to buy 2 sacks of onions, 2 cans of oil, and two baskets of fish, etc.","location":{"country_code":"TG","country":"Togo","town":"An\u00e9ho","geo":{"level":"town","pairs":"6.227277 1.581424","type":"point"}},"partner_id":296,"posted_date":"2025-08-12T16:50:57Z","planned_expiration_date":"2025-09-16T16:50:57Z","loan_amount":550,"borrower_count":1,"lender_count":0,"bonus_credit_eligibility":true,"tags":[{"name":"#Woman-Owned Business","id":"6"}]},{"id":3029794,"name":"Justus","description":{"languages":["en"]},"status":"fundraising","funded_amount":0,"basket_amount":0,"image":{"id":6055129,"template_id":1},"activity":"Retail","sector":"Retail","themes":["Rural Exclusion","Youth"],"use":"to buy posho, bread, salt, sugar, tea leaves, etc., to boost his retail shop.","location":{"country_code":"UG","country":"Uganda","town":"ISHONGORORO","geo":{"level":"town","pairs":"0.008031 30.562447","type":"point"}},"partner_id":685,"posted_date":"2025-08-12T16:42:03Z","planned_expiration_date":"2025-09-16T16:42:03Z","loan_amount":1975,"borrower_count":1,"lender_count":0,"bonus_credit_eligibility":true,"tags":[{"name":"#Supporting Family","id":"31"}]},{"id":3029410,"name":"Deborah","description":{"languages":["fr","en"]},"status":"fundraising","funded_amount":0,"basket_amount":0,"image":{"id":6053956,"template_id":1},"activity":"Fish Selling","sector":"Food","use":"to buy 10 tubs of fish.","location":{"country_code":"TG","country":"Togo","town":"An\u00e9ho","geo":{"level":"town","pairs":"6.227277 1.581424","type":"point"}},"partner_id":296,"posted_date":"2025-08-12T16:41:57Z","planned_expiration_date":"2025-09-16T16:41:57Z","loan_amount":450,"borrower_count":1,"lender_count":0,"bonus_credit_eligibility":true,"tags":[{"name":"#Woman-Owned Business","id":"6"}]},{"id":3029392,"name":"Afiwa","description":{"languages":["fr","en"]},"status":"fundraising","funded_amount":0,"basket_amount":0,"image":{"id":6053931,"template_id":1},"activity":"Cereals","sector":"Food","use":"to buy 50 bags of corn.","location":{"country_code":"TG","country":"Togo","town":"An\u00e9ho","geo":{"level":"town","pairs":"6.227277 1.581424","type":"point"}},"partner_id":296,"posted_date":"2025-08-12T16:41:43Z","planned_expiration_date":"2025-09-16T16:41:43Z","loan_amount":900,"borrower_count":1,"lender_count":0,"bonus_credit_eligibility":true,"tags":[{"name":"#Woman-Owned Business","id":"6"},{"name":"#Vegan","id":"10"},{"name":"#Parent","id":"16"},{"name":"#Repeat Borrower","id":"28"}]},{"id":3029793,"name":"Sughran","description":{"languages":["en"]},"status":"fundraising","funded_amount":0,"basket_amount":0,"image":{"id":6054296,"template_id":1},"activity":"General Store","sector":"Retail","use":"to buy rice, sugar, grains, biscuits, oil and flour from the market at lower rates to make her stock available for her customers.","location":{"country_code":"PK","country":"Pakistan","town":"Sheikhupura","geo":{"level":"town","pairs":"31.716662 73.985024","type":"point"}},"partner_id":245,"posted_date":"2025-08-12T16:41:42Z","planned_expiration_date":"2025-09-16T16:41:42Z","loan_amount":300,"borrower_count":1,"lender_count":0,"bonus_credit_eligibility":true,"tags":[{"name":"#Woman-Owned Business","id":"6"}]},{"id":3029792,"name":"Martha","description":{"languages":["en"]},"status":"fundraising","funded_amount":0,"basket_amount":0,"image":{"id":6055302,"template_id":1},"activity":"Food Market","sector":"Food","themes":["Conflict Zones","Vulnerable Groups","Rural Exclusion"],"use":"to purchase more cassava, bonnie, pepper, charcoal, fufu and plantain to sell.","location":{"country_code":"LR","country":"Liberia","town":"Airport","geo":{"level":"town","pairs":"10.594366 -85.544151","type":"point"}},"partner_id":182,"posted_date":"2025-08-12T16:41:40Z","planned_expiration_date":"2025-09-16T16:41:40Z","loan_amount":700,"borrower_count":1,"lender_count":0,"bonus_credit_eligibility":true,"tags":[{"name":"#Woman-Owned Business","id":"6"},{"name":"#Widowed","id":"12"},{"name":"#Single Parent","id":"17"}]},{"id":3029789,"name":"Bashiru","description":{"languages":["en"]},"status":"fundraising","funded_amount":0,"basket_amount":0,"image":{"id":6055046,"template_id":1},"activity":"Retail","sector":"Retail","themes":["Rural Exclusion","Youth"],"use":"to buy more drinks, bread, posho and other shop items.","location":{"country_code":"UG","country":"Uganda","town":"Kyegegwa","geo":{"level":"town","pairs":"0.481819 31.055009","type":"point"}},"partner_id":685,"posted_date":"2025-08-12T16:33:22Z","planned_expiration_date":"2025-09-16T16:33:22Z","loan_amount":575,"borrower_count":1,"lender_count":0,"bonus_credit_eligibility":true,"tags":[{"name":"#Parent","id":"16"},{"name":"#Repeat Borrower","id":"28"}]},{"id":3029791,"name":"Midias","description":{"languages":["en"]},"status":"fundraising","funded_amount":0,"basket_amount":0,"image":{"id":6055082,"template_id":1},"activity":"Agriculture","sector":"Agriculture","themes":["Rural Exclusion","Crop Insurance"],"use":"to buy mulches for her coffee farm to improve on her coffee harvests.","location":{"country_code":"UG","country":"Uganda","town":"ISHONGORORO","geo":{"level":"town","pairs":"0.008031 30.562447","type":"point"}},"partner_id":685,"posted_date":"2025-08-12T16:33:22Z","planned_expiration_date":"2025-09-16T16:33:22Z","loan_amount":425,"borrower_count":1,"lender_count":0,"bonus_credit_eligibility":true,"tags":[{"name":"#Vegan","id":"10"},{"name":"#Parent","id":"16"}]},{"id":3029784,"name":"Rodgers","description":{"languages":["en"]},"status":"fundraising","funded_amount":0,"basket_amount":0,"image":{"id":6054015,"template_id":1},"activity":"Farming","sector":"Agriculture","themes":["Rural Exclusion","Crop Insurance"],"use":"to buy manure so he can increase his banana harvest.","location":{"country_code":"UG","country":"Uganda","town":"MWIZI","geo":{"level":"town","pairs":"-0.796014 30.596976","type":"point"}},"partner_id":685,"posted_date":"2025-08-12T16:33:21Z","planned_expiration_date":"2025-09-16T16:33:21Z","loan_amount":425,"borrower_count":1,"lender_count":0,"bonus_credit_eligibility":true,"tags":[]},{"id":3029785,"name":"Restetuta","description":{"languages":["en"]},"status":"fundraising","funded_amount":25,"basket_amount":0,"image":{"id":6054998,"template_id":1},"activity":"Agriculture","sector":"Agriculture","themes":["Rural Exclusion","Crop Insurance"],"use":"to buy fertilizers for her garden.","location":{"country_code":"UG","country":"Uganda","town":"Kyegegwa","geo":{"level":"town","pairs":"0.481819 31.055009","type":"point"}},"partner_id":685,"posted_date":"2025-08-12T16:33:21Z","planned_expiration_date":"2025-09-16T16:33:21Z","loan_amount":300,"borrower_count":1,"lender_count":1,"bonus_credit_eligibility":true,"tags":[{"name":"#First Loan","id":"5"},{"name":"#Woman-Owned Business","id":"6"},{"name":"#Vegan","id":"10"},{"name":"#Single Parent","id":"17"}]},{"id":3029787,"name":"Agnes","description":{"languages":["en"]},"status":"fundraising","funded_amount":50,"basket_amount":0,"image":{"id":6055301,"template_id":1},"activity":"Food","sector":"Food","use":"to purchase more rice by the bag to increase her business.","location":{"country_code":"SL","country":"Sierra Leone","town":"Small Bo","geo":{"level":"country","pairs":"8.5 -11.5","type":"point"}},"partner_id":183,"posted_date":"2025-08-12T16:33:16Z","planned_expiration_date":"2025-09-16T16:33:16Z","loan_amount":200,"borrower_count":1,"lender_count":2,"bonus_credit_eligibility":true,"tags":[{"name":"#Woman-Owned Business","id":"6"},{"name":"#Parent","id":"16"}]}]}
